04/17/17 15:53

Cancer (4 points):
Score += 4

Digits (4 points):
Score += 4

Olivetti (4 points):
Score += 4

Code Quality (3 points):
Score += 3

Total score: 15/15 = 100.0%

Excellent!

--------------------------------------------------------------------------------

