04/05/17 18:05

No directory named Tanner-Christensen/lab17:
	Tanner-Christensen/lab17 is not a directory

-------------------------------------------------------

04/05/17 18:05

Error loading Tanner-Christensen/lab17/parallel.py:
	No module named lab17.parallel

-------------------------------------------------------

04/05/17 20:19

No directory named Tanner-Christensen/lab17:
	Tanner-Christensen/lab17 is not a directory

-------------------------------------------------------

04/05/17 20:19

Error loading Tanner-Christensen/lab17/parallel.py:
	No module named lab17.parallel

-------------------------------------------------------

