01/27/17 16:32

No directory named Tanner-Christensen/lab13:
	Tanner-Christensen/lab13 is not a directory

-------------------------------------------------------

01/27/17 16:32

Error loading Tanner-Christensen/lab13/web_scraping1.py:
	No module named lab13.web_scraping1

-------------------------------------------------------

01/27/17 17:02

No directory named Tanner-Christensen/lab13:
	Tanner-Christensen/lab13 is not a directory

-------------------------------------------------------

01/27/17 17:02

Error loading Tanner-Christensen/lab13/web_scraping1.py:
	No module named lab13.web_scraping1

-------------------------------------------------------

