01/19/17 18:08[Errno 2] No such file or directory: 'Tanner-Christensen/lab12/__init__.py'

-------------------------------------------------------

01/21/17 09:32[Errno 2] No such file or directory: 'Tanner-Christensen/lab12/__init__.py'

-------------------------------------------------------

